{
    "pageIndex": 1,
    "pageSize": 10,
    "totalPage": 64,
    "sortField": "url",
    "sortType": "asc",
    "total": 632,
    "pageList": [
        {
            "id": "15363778343408134460",
            "url": "/enter",
            "type": "登录",
            "params": "[userName=admin password=e10adc3949ba59abbe56e057f20f883e verifyCode=n8m7 ]",
            "createUser": "1001",
            "createDate": "2018-09-08 11:37:14",
            "operateIp": "0:0:0:0:0:0:0:1",
            "createUserName": null
        },
        {
            "id": "15365596612415352749",
            "url": "/enter",
            "type": "登录",
            "params": "[userName=admin password=e10adc3949ba59abbe56e057f20f883e verifyCode=8ny8 ]",
            "createUser": "1001",
            "createDate": "2018-09-10 14:07:41",
            "operateIp": "0:0:0:0:0:0:0:1",
            "createUserName": null
        },
        {
            "id": "15365610196758364906",
            "url": "/enter",
            "type": "登录",
            "params": "[userName=admin password=e10adc3949ba59abbe56e057f20f883e verifyCode=bn2y ]",
            "createUser": "1001",
            "createDate": "2018-09-10 14:30:20",
            "operateIp": "0:0:0:0:0:0:0:1",
            "createUserName": null
        },
        {
            "id": "15365614579362376135",
            "url": "/enter",
            "type": "登录",
            "params": "[userName=admin password=e10adc3949ba59abbe56e057f20f883e verifyCode=2g64 ]",
            "createUser": "1001",
            "createDate": "2018-09-10 14:37:38",
            "operateIp": "0:0:0:0:0:0:0:1",
            "createUserName": null
        },
        {
            "id": "15365621831436332121",
            "url": "/enter",
            "type": "登录",
            "params": "[userName=admin password=e10adc3949ba59abbe56e057f20f883e verifyCode=62bf ]",
            "createUser": "1001",
            "createDate": "2018-09-10 14:49:43",
            "operateIp": "0:0:0:0:0:0:0:1",
            "createUserName": null
        },
        {
            "id": "15365622268512574407",
            "url": "/enter",
            "type": "登录",
            "params": "[userName=admin password=e10adc3949ba59abbe56e057f20f883e verifyCode=en77 ]",
            "createUser": "1001",
            "createDate": "2018-09-10 14:50:27",
            "operateIp": "0:0:0:0:0:0:0:1",
            "createUserName": null
        },
        {
            "id": "15365622941343009584",
            "url": "/enter",
            "type": "登录",
            "params": "[userName=admin password=e10adc3949ba59abbe56e057f20f883e verifyCode=8bxx ]",
            "createUser": "1001",
            "createDate": "2018-09-10 14:51:34",
            "operateIp": "0:0:0:0:0:0:0:1",
            "createUserName": null
        },
        {
            "id": "15365625684453146979",
            "url": "/enter",
            "type": "登录",
            "params": "[userName=admin password=e10adc3949ba59abbe56e057f20f883e verifyCode=wgd3 ]",
            "createUser": "1001",
            "createDate": "2018-09-10 14:56:08",
            "operateIp": "0:0:0:0:0:0:0:1",
            "createUserName": null
        },
        {
            "id": "15366525486182303925",
            "url": "/enter",
            "type": "登录",
            "params": "[userName=admin password=e10adc3949ba59abbe56e057f20f883e verifyCode=6wxm ]",
            "createUser": "1001",
            "createDate": "2018-09-11 15:55:49",
            "operateIp": "0:0:0:0:0:0:0:1",
            "createUserName": null
        },
        {
            "id": "15366526656302157395",
            "url": "/enter",
            "type": "登录",
            "params": "[userName=admin password=e10adc3949ba59abbe56e057f20f883e verifyCode=6wxm ]",
            "createUser": "1001",
            "createDate": "2018-09-11 15:57:46",
            "operateIp": "0:0:0:0:0:0:0:1",
            "createUserName": null
        }
    ],
    "data": {"endDate": "", "startDate": "", "type": "", "userId": "", "createUser": "10010101"}
}
